Copyright 1986-2021 Xilinx, Inc. All Rights Reserved.
--------------------------------------------------------------------------------------
| Tool Version : Vivado v.2021.2 (win64) Build 3367213 Tue Oct 19 02:48:09 MDT 2021
| Date         : Fri Jun 17 10:48:29 2022
| Host         : MSI running 64-bit major release  (build 9200)
| Command      : report_control_sets -verbose -file altonivel_control_sets_placed.rpt
| Design       : altonivel
| Device       : xc7a100t
--------------------------------------------------------------------------------------

Control Set Information

Table of Contents
-----------------
1. Summary
2. Histogram
3. Flip-Flop Distribution
4. Detailed Control Set Information

1. Summary
----------

+----------------------------------------------------------+-------+
|                          Status                          | Count |
+----------------------------------------------------------+-------+
| Total control sets                                       |    30 |
|    Minimum number of control sets                        |    30 |
|    Addition due to synthesis replication                 |     0 |
|    Addition due to physical synthesis replication        |     0 |
| Unused register locations in slices containing registers |    61 |
+----------------------------------------------------------+-------+
* Control sets can be merged at opt_design using control_set_merge or merge_equivalent_drivers
** Run report_qor_suggestions for automated merging and remapping suggestions


2. Histogram
------------

+--------------------+-------+
|       Fanout       | Count |
+--------------------+-------+
| Total control sets |    30 |
| >= 0 to < 4        |     0 |
| >= 4 to < 6        |     8 |
| >= 6 to < 8        |    17 |
| >= 8 to < 10       |     1 |
| >= 10 to < 12      |     1 |
| >= 12 to < 14      |     0 |
| >= 14 to < 16      |     0 |
| >= 16              |     3 |
+--------------------+-------+
* Control sets can be remapped at either synth_design or opt_design


3. Flip-Flop Distribution
-------------------------

+--------------+-----------------------+------------------------+-----------------+--------------+
| Clock Enable | Synchronous Set/Reset | Asynchronous Set/Reset | Total Registers | Total Slices |
+--------------+-----------------------+------------------------+-----------------+--------------+
| No           | No                    | No                     |               9 |            3 |
| No           | No                    | Yes                    |             226 |           65 |
| No           | Yes                   | No                     |               0 |            0 |
| Yes          | No                    | No                     |               0 |            0 |
| Yes          | No                    | Yes                    |             208 |           56 |
| Yes          | Yes                   | No                     |               0 |            0 |
+--------------+-----------------------+------------------------+-----------------+--------------+


4. Detailed Control Set Information
-----------------------------------

+------------------------------------------------+------------------------------------------------------------------+------------------+------------------+----------------+--------------+
|                  Clock Signal                  |                           Enable Signal                          | Set/Reset Signal | Slice Load Count | Bel Load Count | Bels / Slice |
+------------------------------------------------+------------------------------------------------------------------+------------------+------------------+----------------+--------------+
|  clk_IBUF_BUFG                                 | Div/E[0]                                                         | rst_IBUF         |                1 |              4 |         4.00 |
|  clk_IBUF_BUFG                                 | uart_bluetooth/uart_tx_unit/FSM_sequential_state_reg_reg[0]_1[0] | rst_IBUF         |                1 |              4 |         4.00 |
|  clk_IBUF_BUFG                                 | uart_bluetooth/uart_tx_unit/s_next                               | rst_IBUF         |                1 |              4 |         4.00 |
|  clk_IBUF_BUFG                                 | uart_bluetooth/uart_tx_unit/E[0]                                 | rst_IBUF         |                2 |              4 |         2.00 |
|  FSM1/FSM_sequential_next_state_reg[3]_i_2_n_0 |                                                                  |                  |                1 |              4 |         4.00 |
|  clk_IBUF_BUFG                                 | SM2/qq0                                                          | rst_IBUF         |                1 |              5 |         5.00 |
|  estados/next_state                            |                                                                  |                  |                2 |              5 |         2.50 |
|  reloj_adc/clk_adc_OBUF                        |                                                                  | rst_IBUF         |                1 |              5 |         5.00 |
|  clk_IBUF_BUFG                                 | uart_bluetooth/fifo_tx_unit/array_reg[3]_3                       | rst_IBUF         |                2 |              7 |         3.50 |
|  clk_IBUF_BUFG                                 | uart_bluetooth/fifo_tx_unit/array_reg[12]_7                      | rst_IBUF         |                2 |              7 |         3.50 |
|  clk_IBUF_BUFG                                 | uart_bluetooth/fifo_tx_unit/array_reg[8]_6                       | rst_IBUF         |                1 |              7 |         7.00 |
|  clk_IBUF_BUFG                                 | uart_bluetooth/fifo_tx_unit/array_reg[15]_0                      | rst_IBUF         |                1 |              7 |         7.00 |
|  clk_IBUF_BUFG                                 | uart_bluetooth/fifo_tx_unit/array_reg[0]_4                       | rst_IBUF         |                2 |              7 |         3.50 |
|  clk_IBUF_BUFG                                 | uart_bluetooth/fifo_tx_unit/array_reg[11]_1                      | rst_IBUF         |                1 |              7 |         7.00 |
|  clk_IBUF_BUFG                                 | uart_bluetooth/fifo_tx_unit/array_reg[13]_11                     | rst_IBUF         |                1 |              7 |         7.00 |
|  clk_IBUF_BUFG                                 | uart_bluetooth/fifo_tx_unit/array_reg[14]_15                     | rst_IBUF         |                2 |              7 |         3.50 |
|  clk_IBUF_BUFG                                 | uart_bluetooth/fifo_tx_unit/array_reg[1]_8                       | rst_IBUF         |                2 |              7 |         3.50 |
|  clk_IBUF_BUFG                                 | uart_bluetooth/fifo_tx_unit/array_reg[6]_13                      | rst_IBUF         |                1 |              7 |         7.00 |
|  clk_IBUF_BUFG                                 | uart_bluetooth/fifo_tx_unit/array_reg[7]_2                       | rst_IBUF         |                4 |              7 |         1.75 |
|  clk_IBUF_BUFG                                 | uart_bluetooth/fifo_tx_unit/array_reg[2]_12                      | rst_IBUF         |                1 |              7 |         7.00 |
|  clk_IBUF_BUFG                                 | uart_bluetooth/fifo_tx_unit/array_reg[4]_5                       | rst_IBUF         |                1 |              7 |         7.00 |
|  clk_IBUF_BUFG                                 | uart_bluetooth/fifo_tx_unit/array_reg[9]_10                      | rst_IBUF         |                4 |              7 |         1.75 |
|  clk_IBUF_BUFG                                 | uart_bluetooth/fifo_tx_unit/array_reg[10]_14                     | rst_IBUF         |                1 |              7 |         7.00 |
|  clk_IBUF_BUFG                                 | uart_bluetooth/fifo_tx_unit/array_reg[5]_9                       | rst_IBUF         |                4 |              7 |         1.75 |
|  clk_IBUF_BUFG                                 | uart_bluetooth/uart_tx_unit/b_next                               | rst_IBUF         |                2 |              7 |         3.50 |
|  clk_IBUF_BUFG                                 | SM2/sg_mem_addr0                                                 | rst_IBUF         |                3 |              8 |         2.67 |
|  clk_IBUF_BUFG                                 | pulso_bafle/E[0]                                                 | rst_IBUF         |                3 |             11 |         3.67 |
|  clk_IBUF_BUFG                                 | SM1/E[0]                                                         | rst_IBUF         |                5 |             21 |         4.20 |
|  clk_IBUF_BUFG                                 | retraso/qq[0]_i_1__0_n_0                                         | rst_IBUF         |                7 |             28 |         4.00 |
|  clk_IBUF_BUFG                                 |                                                                  | rst_IBUF         |               64 |            221 |         3.45 |
+------------------------------------------------+------------------------------------------------------------------+------------------+------------------+----------------+--------------+


